CENG232/lab3/lab3_part2/isim.log
ISim log file
Running: D:\CENG\2-2\CENG232\lab3\lab3_part2\testbench_queue_isim_beh.exe -gui -tclbatch isim.cmd -wdb D:/CENG/2-2/CENG232/lab3/lab3_part2/testbench_queue_isim_beh.wdb 
ISim M.81d (signature 0xcb73ee62)
WARNING: A WEBPACK license was found.
WARNING: Please use Xilinx License Configuration Manager to check out a full ISim license.
WARNING: ISim will run in Lite mode. Please refer to the ISim documentation for more information on the differences between the Lite and the Full version.
This is a Lite version of ISim.
Time resolution is 1 ps
# onerror resume
# wave add /
# run 1000 ns
Simulator is doing circuit initialization process.
Finished circuit initialization process.
Time=0 | en=1 mode=0 | head=  5 tail=  5 empty=1 full=0
Time=5 | en=1 mode=0 | head=  5 tail=  6 empty=0 full=0
Time=15 | en=1 mode=0 | head=  5 tail=  7 empty=0 full=0
Time=25 | en=1 mode=0 | head=  5 tail=  8 empty=0 full=0
Time=35 | en=1 mode=0 | head=  5 tail=  9 empty=0 full=0
Time=45 | en=1 mode=0 | head=  5 tail= 10 empty=0 full=0
Time=55 | en=1 mode=0 | head=  5 tail=  5 empty=0 full=1
Time=70 | en=1 mode=1 | head=  5 tail=  5 empty=0 full=1
Time=75 | en=1 mode=1 | head=  6 tail=  5 empty=0 full=0
Time=85 | en=1 mode=1 | head=  7 tail=  5 empty=0 full=0
Time=90 | en=1 mode=0 | head=  7 tail=  5 empty=0 full=0
Time=95 | en=1 mode=0 | head=  7 tail=  6 empty=0 full=0
Time=105 | en=1 mode=0 | head=  7 tail=  7 empty=0 full=1
Time=120 | en=1 mode=1 | head=  7 tail=  7 empty=0 full=1
Time=125 | en=1 mode=1 | head=  8 tail=  7 empty=0 full=0
Time=135 | en=1 mode=1 | head=  9 tail=  7 empty=0 full=0
Time=145 | en=1 mode=1 | head= 10 tail=  7 empty=0 full=0
Time=155 | en=1 mode=1 | head=  5 tail=  7 empty=0 full=0
Time=165 | en=1 mode=1 | head=  6 tail=  7 empty=0 full=0
Time=175 | en=1 mode=1 | head=  7 tail=  7 empty=1 full=0
Stopped at time : 190 ns : File "D:/CENG/2-2/CENG232/lab3/lab3_part2/testbench_queue.v" Line 70
